{
  "timestamp": "2025-09-18T20:12:29.215Z",
  "endpoints": {
    "newReleases": {
      "endpoint": "/browse/new-releases",
      "method": "GET",
      "params": {
        "country": "US",
        "limit": 2
      },
      "responseStructure": {
        "topLevelKeys": ["albums"],
        "albumsContainerKeys": [
          "href",
          "items",
          "limit",
          "next",
          "offset",
          "previous",
          "total"
        ],
        "paginationInfo": {
          "total": 100,
          "limit": 2,
          "offset": 0,
          "hasNext": true,
          "hasPrevious": false
        }
      },
      "sampleAlbum": {
        "allKeys": [
          "album_type",
          "artists",
          "available_markets",
          "external_urls",
          "href",
          "id",
          "images",
          "name",
          "release_date",
          "release_date_precision",
          "total_tracks",
          "type",
          "uri"
        ],
        "sampleData": {
          "id": "1Mo4aZ8pdj6L1jx8zSwJnt",
          "name": "THE TORTURED POETS DEPARTMENT",
          "album_type": "album",
          "artists": [
            {
              "id": "06HL4z0CvFAxyc27GXpf02",
              "name": "Taylor Swift"
            }
          ],
          "release_date": "2024-04-18",
          "total_tracks": 16,
          "images": [
            {
              "url": "https://i.scdn.co/image/ab67616d00001e025076e4160d018e378f488c33",
              "height": 300,
              "width": 300
            },
            {
              "url": "https://i.scdn.co/image/ab67616d000048515076e4160d018e378f488c33",
              "height": 64,
              "width": 64
            },
            {
              "url": "https://i.scdn.co/image/ab67616d0000b2735076e4160d018e378f488c33",
              "height": 640,
              "width": 640
            }
          ],
          "external_urls": {
            "spotify": "https://open.spotify.com/album/1Mo4aZ8pdj6L1jx8zSwJnt"
          }
        },
        "artistStructure": {
          "keys": ["external_urls", "href", "id", "name", "type", "uri"],
          "sample": {
            "external_urls": {
              "spotify": "https://open.spotify.com/artist/06HL4z0CvFAxyc27GXpf02"
            },
            "href": "https://api.spotify.com/v1/artists/06HL4z0CvFAxyc27GXpf02",
            "id": "06HL4z0CvFAxyc27GXpf02",
            "name": "Taylor Swift",
            "type": "artist",
            "uri": "spotify:artist:06HL4z0CvFAxyc27GXpf02"
          }
        }
      }
    },
    "featuredPlaylists": {
      "error": "Unrecognised response code: 404 - Not Found. Body: {\"error\": {\"status\": 404, \"message\": \"Not Found\" } }"
    },
    "categories": {
      "endpoint": "/browse/categories",
      "method": "GET",
      "params": {
        "country": "US",
        "limit": 3
      },
      "responseStructure": {
        "topLevelKeys": ["categories"],
        "categoriesContainerKeys": [
          "href",
          "items",
          "limit",
          "next",
          "offset",
          "previous",
          "total"
        ]
      },
      "sampleCategory": {
        "href": "https://api.spotify.com/v1/browse/categories/0JQ5DAt0tbjZptfcdMSKl3",
        "id": "0JQ5DAt0tbjZptfcdMSKl3",
        "icons": [
          {
            "height": 274,
            "url": "https://t.scdn.co/images/728ed47fc1674feb95f7ac20236eb6d7.jpeg",
            "width": 274
          }
        ],
        "name": "Made For You"
      }
    },
    "search": {
      "endpoint": "/search",
      "method": "GET",
      "params": {
        "q": "Daft Punk",
        "type": "artist,album",
        "market": "US",
        "limit": 2
      },
      "responseStructure": {
        "topLevelKeys": ["artists", "albums"],
        "artistsKeys": [
          "href",
          "limit",
          "next",
          "offset",
          "previous",
          "total",
          "items"
        ],
        "albumsKeys": [
          "href",
          "limit",
          "next",
          "offset",
          "previous",
          "total",
          "items"
        ]
      },
      "sampleArtist": {
        "external_urls": {
          "spotify": "https://open.spotify.com/artist/4tZwfgrHOc3mvqYlEYSvVi"
        },
        "followers": {
          "href": null,
          "total": 10712858
        },
        "genres": ["french house", "electronic", "electro"],
        "href": "https://api.spotify.com/v1/artists/4tZwfgrHOc3mvqYlEYSvVi",
        "id": "4tZwfgrHOc3mvqYlEYSvVi",
        "images": [
          {
            "url": "https://i.scdn.co/image/ab6761610000e5ebd3aa7cc0e419b6c459b08e8e",
            "height": 640,
            "width": 640
          },
          {
            "url": "https://i.scdn.co/image/ab67616100005174d3aa7cc0e419b6c459b08e8e",
            "height": 320,
            "width": 320
          },
          {
            "url": "https://i.scdn.co/image/ab6761610000f178d3aa7cc0e419b6c459b08e8e",
            "height": 160,
            "width": 160
          }
        ],
        "name": "Daft Punk",
        "popularity": 83,
        "type": "artist",
        "uri": "spotify:artist:4tZwfgrHOc3mvqYlEYSvVi"
      },
      "sampleAlbum": {
        "album_type": "album",
        "total_tracks": 14,
        "is_playable": true,
        "external_urls": {
          "spotify": "https://open.spotify.com/album/2noRn2Aes5aoNVsU6iWThc"
        },
        "href": "https://api.spotify.com/v1/albums/2noRn2Aes5aoNVsU6iWThc",
        "id": "2noRn2Aes5aoNVsU6iWThc",
        "images": [
          {
            "height": 640,
            "url": "https://i.scdn.co/image/ab67616d0000b2732c25dad9f8fd54652f7ba5df",
            "width": 640
          },
          {
            "height": 300,
            "url": "https://i.scdn.co/image/ab67616d00001e022c25dad9f8fd54652f7ba5df",
            "width": 300
          },
          {
            "height": 64,
            "url": "https://i.scdn.co/image/ab67616d000048512c25dad9f8fd54652f7ba5df",
            "width": 64
          }
        ],
        "name": "Discovery",
        "release_date": "2001-03-12",
        "release_date_precision": "day",
        "type": "album",
        "uri": "spotify:album:2noRn2Aes5aoNVsU6iWThc",
        "artists": [
          {
            "external_urls": {
              "spotify": "https://open.spotify.com/artist/4tZwfgrHOc3mvqYlEYSvVi"
            },
            "href": "https://api.spotify.com/v1/artists/4tZwfgrHOc3mvqYlEYSvVi",
            "id": "4tZwfgrHOc3mvqYlEYSvVi",
            "name": "Daft Punk",
            "type": "artist",
            "uri": "spotify:artist:4tZwfgrHOc3mvqYlEYSvVi"
          }
        ]
      }
    }
  }
}
